\relax 
\citation{IEEEhowto:Observ}
\citation{IEEEhowto:Observ}
\citation{IEEEhowto:HRR1}
\citation{IEEEhowto:Chang1}
\citation{IEEEhowto:Chang2}
\citation{IEEEhowto:Chang3}
\citation{IEEEhowto:Chang4}
\@writefile{toc}{\contentsline {section}{\numberline {I}Introduction}{}}
\citation{IEEEhowto:COMIA3}
\citation{IEEEhowto:COMIA3}
\citation{IEEEhowto:COMIA4}
\citation{IEEEhowto:COMIA6}
\citation{IEEEhowto:COMIA5}
\citation{IEEEhowto:COMIA4}
\citation{IEEEhowto:Chang5}
\citation{IEEEhowto:Chang6}
\citation{IEEEhowto:Chang7}
\citation{IEEEhowto:Chang7}
\citation{IEEEhowto:Chang5}
\citation{IEEEhowto:COMIA7}
\citation{IEEEhowto:COMIA8}
\citation{IEEEhowto:COMIA9}
\citation{IEEEhowto:Chang8}
\citation{IEEEhowto:COMIA8}
\citation{IEEEhowto:COMIA9}
\citation{IEEEhowto:COMIA10}
\citation{IEEEhowto:COMIA8}
\citation{IEEEhowto:COMIA4}
\citation{IEEEhowto:COMIA4}
\citation{IEEEhowto:COMIA11}
\@writefile{toc}{\contentsline {section}{\numberline {II}Prediction of set of variables}{}}
\@writefile{toc}{\contentsline {subsection}{\numberline {\unhbox \voidb@x \hbox {II-A}}Data Window Reconstruction.}{}}
\@writefile{toc}{\contentsline {subsubsection}{\numberline {\unhbox \voidb@x \hbox {II-A}1}Elimination of temporality.}{}}
\@writefile{lof}{\contentsline {figure}{\numberline {1}{\ignorespaces Process of general reconstruction of variables of energy production.}}{}}
\newlabel{fig:fig_reconstruction_forescast}{{1}{}}
\@writefile{lof}{\contentsline {figure}{\numberline {2}{\ignorespaces Flow diagram of the process of general reconstruction of energy production variables.}}{}}
\newlabel{fig:fig_reconstruction}{{2}{}}
\bibcite{IEEEhowto:Observ}{1}
\bibcite{IEEEhowto:HRR1}{2}
\bibcite{ITSAF}{3}
\bibcite{IEEEhowto:Chang1}{4}
\bibcite{IEEEhowto:Chang2}{5}
\bibcite{IEEEhowto:Chang3}{6}
\bibcite{IEEEhowto:Chang4}{7}
\bibcite{IEEEhowto:COMIA3}{8}
\bibcite{IEEEhowto:COMIA4}{9}
\bibcite{IEEEhowto:COMIA5}{10}
\bibcite{IEEEhowto:COMIA6}{11}
\bibcite{IEEEhowto:Chang5}{12}
\bibcite{IEEEhowto:Chang6}{13}
\bibcite{IEEEhowto:Chang7}{14}
\bibcite{IEEEhowto:COMIA7}{15}
\bibcite{IEEEhowto:COMIA8}{16}
\bibcite{IEEEhowto:COMIA9}{17}
\bibcite{IEEEhowto:Chang8}{18}
\bibcite{IEEEhowto:COMIA10}{19}
\bibcite{IEEEhowto:COMIA11}{20}
\@writefile{lot}{\contentsline {table}{\numberline {I}{\ignorespaces Transformation of the data window into a regression problem.}}{}}
\newlabel{table:nonlin}{{I}{}}
\@writefile{toc}{\contentsline {section}{\numberline {III}Conclusions}{}}
\@writefile{toc}{\contentsline {section}{References}{}}
